<?xml version="1.0" standalone="no"?>
<!DOCTYPE svg PUBLIC "-//W3C//DTD SVG 20010904//EN"
 "http://www.w3.org/TR/2001/REC-SVG-20010904/DTD/svg10.dtd">
<svg version="1.0" xmlns="http://www.w3.org/2000/svg"
 width="512.000000pt" height="512.000000pt" viewBox="0 0 512.000000 512.000000"
 preserveAspectRatio="xMidYMid meet">
<metadata>
Created by potrace 1.11, written by Peter Selinger 2001-2013
</metadata>
<g transform="translate(0.000000,512.000000) scale(0.100000,-0.100000)"
fill="#000000" stroke="none">
<path d="M2470 4683 c0 -5 -18 -17 -40 -27 -22 -11 -40 -23 -40 -28 0 -5 -4
-7 -9 -4 -9 6 -34 -46 -34 -70 0 -9 -12 -13 -34 -12 -31 1 -103 -29 -103 -44
0 -3 -7 -13 -14 -21 -8 -8 -17 -27 -20 -43 -2 -16 -5 -31 -5 -33 -1 -2 -13 8
-27 22 -53 54 -111 53 -134 -3 l-13 -31 -16 33 c-17 37 -48 68 -66 68 -16 0
-27 -28 -19 -42 4 -6 -1 -17 -11 -24 -10 -8 -15 -20 -11 -29 3 -10 -4 -30 -19
-49 -14 -18 -25 -38 -25 -44 0 -7 -4 -12 -10 -12 -5 0 -10 10 -10 23 0 13 -12
35 -27 48 -30 27 -82 53 -91 45 -2 -3 -14 0 -26 6 -11 7 -24 11 -28 10 -11 -3
-10 12 2 24 14 14 -5 16 -91 11 -13 -1 -16 -11 -16 -43 0 -32 -6 -50 -26 -74
-15 -17 -27 -37 -27 -43 0 -8 -16 -12 -45 -11 -51 1 -70 -15 -101 -86 -16 -35
-19 -37 -41 -27 -24 11 -32 37 -10 37 9 0 9 2 -1 9 -8 4 -13 11 -12 15 4 16
-7 25 -35 29 -31 4 -75 -10 -75 -24 0 -4 -15 -5 -34 -2 -29 4 -35 2 -41 -16
-4 -12 -12 -20 -18 -18 -18 6 -49 -51 -41 -75 5 -17 3 -20 -10 -15 -14 6 -21
-3 -17 -25 0 -4 -18 -17 -42 -29 -118 -61 -157 -122 -117 -187 15 -25 84 -78
121 -94 4 -2 32 -154 63 -338 31 -184 58 -346 61 -360 2 -14 11 -68 20 -120 8
-52 17 -105 19 -116 2 -12 7 -39 10 -60 4 -22 33 -201 67 -399 67 -401 68
-410 74 -445 4 -26 112 -672 121 -725 3 -16 7 -41 9 -55 34 -209 46 -282 50
-319 5 -42 4 -43 -13 -30 -10 8 -8 5 4 -7 20 -19 24 -36 26 -106 0 -15 4 -25
9 -22 5 3 9 0 9 -6 0 -6 4 -9 9 -6 5 3 12 -1 15 -10 4 -10 2 -13 -7 -8 -9 5
-8 3 1 -7 11 -12 14 -12 22 1 7 11 10 11 10 2 0 -7 4 -11 9 -7 5 3 13 0 17 -6
4 -8 3 -9 -4 -5 -7 4 -12 2 -12 -3 0 -10 22 -15 57 -14 7 1 10 -3 7 -8 -5 -9
10 -13 30 -10 5 1 3 -5 -4 -14 -12 -14 -10 -15 13 -6 19 8 28 6 37 -4 7 -8 17
-12 23 -8 6 4 7 1 2 -7 -6 -10 -4 -12 8 -7 9 3 19 2 22 -4 4 -5 10 -7 15 -4 5
3 13 -2 17 -10 6 -9 19 -14 34 -11 13 2 30 -1 37 -6 6 -6 12 -7 12 -3 0 4 7 1
16 -6 9 -7 26 -13 38 -14 11 0 20 -5 19 -11 -1 -6 4 -11 12 -11 8 0 11 5 8 11
-5 8 -3 8 8 1 8 -6 26 -10 41 -9 24 1 26 -1 15 -14 -10 -13 -9 -14 8 -5 23 12
68 7 73 -7 2 -6 10 -6 21 0 10 5 22 6 26 2 7 -7 12 -8 41 -11 9 0 13 -6 9 -13
-4 -7 1 -4 9 6 9 11 16 15 16 8 0 -6 9 -9 20 -7 11 2 20 -1 20 -6 0 -6 7 -6
19 1 12 6 22 6 26 1 3 -6 14 -8 25 -6 11 2 20 -2 20 -8 0 -8 3 -8 8 -2 8 12
74 17 67 5 -3 -5 -1 -12 5 -15 6 -4 10 -3 9 2 -4 22 3 24 27 8 15 -9 24 -12
20 -7 -10 17 18 20 30 4 9 -12 13 -12 19 -2 5 9 4 11 -3 6 -7 -4 -12 -2 -12 3
0 14 6 14 31 1 14 -8 19 -7 19 1 0 8 5 7 17 -2 11 -10 14 -10 9 -1 -9 15 6 16
22 0 7 -7 12 -8 12 -3 0 6 15 9 32 9 22 -1 32 -6 30 -15 -3 -10 1 -10 15 1 20
17 41 19 62 6 10 -7 12 -5 6 3 -5 9 -1 12 11 10 11 -2 25 0 33 5 11 7 12 6 6
-5 -8 -12 -6 -12 8 0 14 11 17 11 17 0 0 -9 3 -10 8 -4 4 6 21 12 37 13 17 2
39 4 50 6 11 2 26 -1 33 -7 9 -7 11 -5 5 9 -6 17 -5 17 10 5 13 -10 17 -10 17
-1 0 7 6 10 14 7 7 -3 18 -1 24 5 8 8 16 7 28 -3 10 -8 15 -9 11 -3 -4 7 2 14
13 17 11 3 18 1 15 -4 -3 -4 7 -2 22 6 21 11 30 12 42 2 11 -9 13 -9 8 0 -11
18 12 26 30 11 14 -11 16 -11 9 0 -6 10 -3 13 10 10 11 -2 19 -10 20 -18 1
-29 15 -49 31 -43 9 4 14 2 10 -3 -3 -6 23 -10 68 -10 40 0 71 4 69 8 -3 5 1
15 10 23 13 13 18 12 46 -12 26 -22 40 -26 83 -24 67 2 87 9 81 26 -4 9 3 16
20 20 14 3 37 7 50 10 14 3 23 12 23 22 0 66 3 76 18 63 14 -12 16 -10 15 15
0 3 6 18 15 35 8 16 14 38 12 49 -6 38 -41 91 -62 93 -11 0 -27 2 -35 2 -8 1
-20 -5 -27 -14 -11 -13 -12 -12 -13 8 0 12 5 22 10 22 6 0 10 5 10 11 0 5 -4
8 -8 5 -5 -3 -9 10 -10 29 -1 19 2 35 6 35 4 0 8 21 9 48 1 26 108 683 237
1460 130 777 236 1416 236 1420 1 4 28 24 61 45 122 76 109 161 -37 238 -22
12 -46 34 -52 49 -15 34 -79 68 -112 60 -14 -3 -30 -16 -36 -28 -18 -36 -21
-35 -44 7 -34 59 -85 67 -76 10 3 -20 0 -29 -10 -29 -22 0 -46 45 -51 97 -5
56 -24 99 -41 96 -7 -2 -12 2 -12 9 0 6 -3 9 -6 5 -4 -3 -22 0 -41 8 -20 8
-44 15 -54 15 -26 0 -105 -81 -113 -116 -5 -21 -13 -30 -26 -30 -11 0 -20 6
-20 13 0 7 -5 13 -11 13 -34 0 -45 64 -13 82 7 5 10 17 7 28 -6 23 -42 52 -55
44 -4 -3 -8 2 -8 10 0 9 -6 16 -14 16 -8 0 -17 7 -20 16 -5 14 -9 14 -23 3
-10 -8 -14 -9 -10 -2 9 14 -12 63 -26 63 -6 0 -8 3 -4 6 12 13 -30 44 -54 40
-13 -3 -24 -5 -24 -6 0 -2 -36 -10 -56 -12 -15 -2 -15 -4 -2 -25 14 -21 13
-22 -9 -18 -16 3 -33 -3 -48 -17 -26 -24 -50 -29 -62 -13 -5 7 -8 6 -8 0 0 -6
-17 -10 -37 -10 -21 1 -47 -4 -58 -11 -19 -10 -21 -9 -23 14 -3 33 -25 67 -59
89 -47 31 -170 22 -224 -16 -17 -13 -31 -16 -40 -11 -9 6 -22 4 -36 -6 -21
-13 -23 -13 -23 6 0 11 -6 36 -14 55 -8 18 -10 35 -6 37 15 5 16 52 3 54 -7 1
-18 2 -24 3 -5 0 -8 5 -5 9 2 4 -4 13 -15 20 -10 7 -19 9 -19 5z m110 -303 c0
-5 -8 -10 -17 -10 -15 0 -16 2 -3 10 19 12 20 12 20 0z m670 -30 c0 -13 -28
-25 -38 -16 -3 4 0 11 8 16 20 13 30 12 30 0z m-1667 -127 c-5 -12 -7 -12 -14
-1 -13 20 -11 28 5 22 8 -3 12 -12 9 -21z"/>
<path d="M1413 855 c0 -8 4 -12 9 -9 5 3 6 10 3 15 -9 13 -12 11 -12 -6z"/>
<path d="M1355 830 c10 -11 20 -20 23 -20 3 0 -3 9 -13 20 -10 11 -20 20 -23
20 -3 0 3 -9 13 -20z"/>
<path d="M1394 815 c0 -14 4 -25 8 -25 4 0 7 9 5 20 -5 29 -13 33 -13 5z"/>
<path d="M1411 771 c-7 -13 -6 -24 3 -36 14 -19 62 -33 51 -15 -4 6 -14 9 -22
8 -9 -2 -18 3 -20 10 -3 8 2 10 14 6 17 -5 17 -5 1 6 -10 6 -18 16 -18 22 0 7
5 6 15 -2 9 -7 15 -8 15 -2 0 19 -30 21 -39 3z"/>
<path d="M1438 693 c7 -3 16 -2 19 1 4 3 -2 6 -13 5 -11 0 -14 -3 -6 -6z"/>
<path d="M1670 561 c0 -5 5 -13 10 -16 6 -3 10 -2 10 4 0 5 -4 13 -10 16 -5 3
-10 2 -10 -4z"/>
<path d="M1830 500 c0 -5 5 -10 11 -10 5 0 7 5 4 10 -3 6 -8 10 -11 10 -2 0
-4 -4 -4 -10z"/>
<path d="M1860 491 c0 -6 4 -13 10 -16 6 -3 7 1 4 9 -7 18 -14 21 -14 7z"/>
<path d="M3450 419 c0 -4 11 -6 25 -6 13 0 22 3 20 8 -6 9 -45 8 -45 -2z"/>
</g>
</svg>
